^C:\USERS\EISKALT\DESKTOP\TDGAMEPRERELISE\TDGAME\TDGAME\CORE.CPP|C:\USERS\EISKALT\DESKTOP\TDGAMEPRERELISE\TDGAME\TDGAME\DEBUG.CPP|C:\USERS\EISKALT\DESKTOP\TDGAMEPRERELISE\TDGAME\TDGAME\ENEMY.CPP|C:\USERS\EISKALT\DESKTOP\TDGAMEPRERELISE\TDGAME\TDGAME\GAMEMENU.CPP|C:\USERS\EISKALT\DESKTOP\TDGAMEPRERELISE\TDGAME\TDGAME\GUN.CPP|C:\USERS\EISKALT\DESKTOP\TDGAMEPRERELISE\TDGAME\TDGAME\LASER.CPP|C:\USERS\EISKALT\DESKTOP\TDGAMEPRERELISE\TDGAME\TDGAME\LINESHAPE.CPP|C:\USERS\EISKALT\DESKTOP\TDGAMEPRERELISE\TDGAME\TDGAME\MAIN.CPP|C:\USERS\EISKALT\DESKTOP\TDGAMEPRERELISE\TDGAME\TDGAME\MAINMENU.CPP|C:\USERS\EISKALT\DESKTOP\TDGAMEPRERELISE\TDGAME\TDGAME\MENU.CPP|C:\USERS\EISKALT\DESKTOP\TDGAMEPRERELISE\TDGAME\TDGAME\SOLDIER.CPP|C:\USERS\EISKALT\DESKTOP\TDGAMEPRERELISE\TDGAME\TDGAME\TANK.CPP|C:\USERS\EISKALT\DESKTOP\TDGAMEPRERELISE\TDGAME\TDGAME\TOWER.CPP
C:\USERS\EISKALT\DESKTOP\TDGAMEPRERELISE\TDGAME\TDGAME\DEBUG\CORE.OBJ
C:\USERS\EISKALT\DESKTOP\TDGAMEPRERELISE\TDGAME\TDGAME\DEBUG\DEBUG.OBJ
C:\USERS\EISKALT\DESKTOP\TDGAMEPRERELISE\TDGAME\TDGAME\DEBUG\ENEMY.OBJ
C:\USERS\EISKALT\DESKTOP\TDGAMEPRERELISE\TDGAME\TDGAME\DEBUG\GAMEMENU.OBJ
C:\USERS\EISKALT\DESKTOP\TDGAMEPRERELISE\TDGAME\TDGAME\DEBUG\GUN.OBJ
C:\USERS\EISKALT\DESKTOP\TDGAMEPRERELISE\TDGAME\TDGAME\DEBUG\LASER.OBJ
C:\USERS\EISKALT\DESKTOP\TDGAMEPRERELISE\TDGAME\TDGAME\DEBUG\LINESHAPE.OBJ
C:\USERS\EISKALT\DESKTOP\TDGAMEPRERELISE\TDGAME\TDGAME\DEBUG\MAIN.OBJ
C:\USERS\EISKALT\DESKTOP\TDGAMEPRERELISE\TDGAME\TDGAME\DEBUG\MAINMENU.OBJ
C:\USERS\EISKALT\DESKTOP\TDGAMEPRERELISE\TDGAME\TDGAME\DEBUG\MENU.OBJ
C:\USERS\EISKALT\DESKTOP\TDGAMEPRERELISE\TDGAME\TDGAME\DEBUG\SOLDIER.OBJ
C:\USERS\EISKALT\DESKTOP\TDGAMEPRERELISE\TDGAME\TDGAME\DEBUG\TANK.OBJ
C:\USERS\EISKALT\DESKTOP\TDGAMEPRERELISE\TDGAME\TDGAME\DEBUG\TOWER.OBJ
^C:\USERS\EISKALT\DESKTOP\TDGAMEPRERELISE\TDGAME\TDGAME\CORE.CPP
C:\USERS\EISKALT\DESKTOP\TDGAMEPRERELISE\TDGAME\TDGAME\DEBUG\VC110.PDB
^C:\USERS\EISKALT\DESKTOP\TDGAMEPRERELISE\TDGAME\TDGAME\DEBUG.CPP
C:\USERS\EISKALT\DESKTOP\TDGAMEPRERELISE\TDGAME\TDGAME\DEBUG\VC110.PDB
^C:\USERS\EISKALT\DESKTOP\TDGAMEPRERELISE\TDGAME\TDGAME\ENEMY.CPP
C:\USERS\EISKALT\DESKTOP\TDGAMEPRERELISE\TDGAME\TDGAME\DEBUG\VC110.PDB
^C:\USERS\EISKALT\DESKTOP\TDGAMEPRERELISE\TDGAME\TDGAME\GAMEMENU.CPP
C:\USERS\EISKALT\DESKTOP\TDGAMEPRERELISE\TDGAME\TDGAME\DEBUG\VC110.PDB
C:\USERS\EISKALT\DESKTOP\TDGAMEPRERELISE\TDGAME\TDGAME\DEBUG\GAMEMENU.OBJ
^C:\USERS\EISKALT\DESKTOP\TDGAMEPRERELISE\TDGAME\TDGAME\GUN.CPP
C:\USERS\EISKALT\DESKTOP\TDGAMEPRERELISE\TDGAME\TDGAME\DEBUG\VC110.PDB
^C:\USERS\EISKALT\DESKTOP\TDGAMEPRERELISE\TDGAME\TDGAME\LASER.CPP
C:\USERS\EISKALT\DESKTOP\TDGAMEPRERELISE\TDGAME\TDGAME\DEBUG\VC110.PDB
C:\USERS\EISKALT\DESKTOP\TDGAMEPRERELISE\TDGAME\TDGAME\DEBUG\LASER.OBJ
^C:\USERS\EISKALT\DESKTOP\TDGAMEPRERELISE\TDGAME\TDGAME\LINESHAPE.CPP
C:\USERS\EISKALT\DESKTOP\TDGAMEPRERELISE\TDGAME\TDGAME\DEBUG\VC110.PDB
^C:\USERS\EISKALT\DESKTOP\TDGAMEPRERELISE\TDGAME\TDGAME\MAIN.CPP
C:\USERS\EISKALT\DESKTOP\TDGAMEPRERELISE\TDGAME\TDGAME\DEBUG\VC110.PDB
C:\USERS\EISKALT\DESKTOP\TDGAMEPRERELISE\TDGAME\TDGAME\DEBUG\MAIN.OBJ
^C:\USERS\EISKALT\DESKTOP\TDGAMEPRERELISE\TDGAME\TDGAME\MAINMENU.CPP
C:\USERS\EISKALT\DESKTOP\TDGAMEPRERELISE\TDGAME\TDGAME\DEBUG\VC110.PDB
C:\USERS\EISKALT\DESKTOP\TDGAMEPRERELISE\TDGAME\TDGAME\DEBUG\MAINMENU.OBJ
^C:\USERS\EISKALT\DESKTOP\TDGAMEPRERELISE\TDGAME\TDGAME\MENU.CPP
C:\USERS\EISKALT\DESKTOP\TDGAMEPRERELISE\TDGAME\TDGAME\DEBUG\VC110.PDB
^C:\USERS\EISKALT\DESKTOP\TDGAMEPRERELISE\TDGAME\TDGAME\SOLDIER.CPP
C:\USERS\EISKALT\DESKTOP\TDGAMEPRERELISE\TDGAME\TDGAME\DEBUG\VC110.PDB
^C:\USERS\EISKALT\DESKTOP\TDGAMEPRERELISE\TDGAME\TDGAME\TANK.CPP
C:\USERS\EISKALT\DESKTOP\TDGAMEPRERELISE\TDGAME\TDGAME\DEBUG\VC110.PDB
^C:\USERS\EISKALT\DESKTOP\TDGAMEPRERELISE\TDGAME\TDGAME\TOWER.CPP
C:\USERS\EISKALT\DESKTOP\TDGAMEPRERELISE\TDGAME\TDGAME\DEBUG\VC110.PDB
^C:\USERS\EISKALT\DESKTOP\TDGAMEPRERELISE\TDGAME\TDGAME\GUN.CPP|C:\USERS\EISKALT\DESKTOP\TDGAMEPRERELISE\TDGAME\TDGAME\LASER.CPP|C:\USERS\EISKALT\DESKTOP\TDGAMEPRERELISE\TDGAME\TDGAME\MAIN.CPP|C:\USERS\EISKALT\DESKTOP\TDGAMEPRERELISE\TDGAME\TDGAME\TANK.CPP
C:\USERS\EISKALT\DESKTOP\TDGAMEPRERELISE\TDGAME\TDGAME\DEBUG\TANK.OBJ
C:\USERS\EISKALT\DESKTOP\TDGAMEPRERELISE\TDGAME\TDGAME\DEBUG\MAIN.OBJ
C:\USERS\EISKALT\DESKTOP\TDGAMEPRERELISE\TDGAME\TDGAME\DEBUG\GUN.OBJ
C:\USERS\EISKALT\DESKTOP\TDGAMEPRERELISE\TDGAME\TDGAME\DEBUG\LASER.OBJ
^C:\USERS\EISKALT\DESKTOP\TDGAMEPRERELISE\TDGAME\TDGAME\ENEMY.CPP|C:\USERS\EISKALT\DESKTOP\TDGAMEPRERELISE\TDGAME\TDGAME\GAMEMENU.CPP|C:\USERS\EISKALT\DESKTOP\TDGAMEPRERELISE\TDGAME\TDGAME\GUN.CPP|C:\USERS\EISKALT\DESKTOP\TDGAMEPRERELISE\TDGAME\TDGAME\LASER.CPP|C:\USERS\EISKALT\DESKTOP\TDGAMEPRERELISE\TDGAME\TDGAME\MAIN.CPP|C:\USERS\EISKALT\DESKTOP\TDGAMEPRERELISE\TDGAME\TDGAME\MAINMENU.CPP|C:\USERS\EISKALT\DESKTOP\TDGAMEPRERELISE\TDGAME\TDGAME\MENU.CPP|C:\USERS\EISKALT\DESKTOP\TDGAMEPRERELISE\TDGAME\TDGAME\SOLDIER.CPP|C:\USERS\EISKALT\DESKTOP\TDGAMEPRERELISE\TDGAME\TDGAME\TANK.CPP|C:\USERS\EISKALT\DESKTOP\TDGAMEPRERELISE\TDGAME\TDGAME\TOWER.CPP
C:\USERS\EISKALT\DESKTOP\TDGAMEPRERELISE\TDGAME\TDGAME\DEBUG\ENEMY.OBJ
C:\USERS\EISKALT\DESKTOP\TDGAMEPRERELISE\TDGAME\TDGAME\DEBUG\GAMEMENU.OBJ
C:\USERS\EISKALT\DESKTOP\TDGAMEPRERELISE\TDGAME\TDGAME\DEBUG\GUN.OBJ
C:\USERS\EISKALT\DESKTOP\TDGAMEPRERELISE\TDGAME\TDGAME\DEBUG\LASER.OBJ
C:\USERS\EISKALT\DESKTOP\TDGAMEPRERELISE\TDGAME\TDGAME\DEBUG\MAINMENU.OBJ
C:\USERS\EISKALT\DESKTOP\TDGAMEPRERELISE\TDGAME\TDGAME\DEBUG\SOLDIER.OBJ
C:\USERS\EISKALT\DESKTOP\TDGAMEPRERELISE\TDGAME\TDGAME\DEBUG\TANK.OBJ
C:\USERS\EISKALT\DESKTOP\TDGAMEPRERELISE\TDGAME\TDGAME\DEBUG\MENU.OBJ
C:\USERS\EISKALT\DESKTOP\TDGAMEPRERELISE\TDGAME\TDGAME\DEBUG\TOWER.OBJ
C:\USERS\EISKALT\DESKTOP\TDGAMEPRERELISE\TDGAME\TDGAME\DEBUG\MAIN.OBJ
^C:\USERS\EISKALT\DESKTOP\TDGAMEPRERELISE\TDGAME\TDGAME\CORE.CPP|C:\USERS\EISKALT\DESKTOP\TDGAMEPRERELISE\TDGAME\TDGAME\GAMEMENU.CPP|C:\USERS\EISKALT\DESKTOP\TDGAMEPRERELISE\TDGAME\TDGAME\GUN.CPP|C:\USERS\EISKALT\DESKTOP\TDGAMEPRERELISE\TDGAME\TDGAME\LASER.CPP|C:\USERS\EISKALT\DESKTOP\TDGAMEPRERELISE\TDGAME\TDGAME\MAIN.CPP|C:\USERS\EISKALT\DESKTOP\TDGAMEPRERELISE\TDGAME\TDGAME\MAINMENU.CPP|C:\USERS\EISKALT\DESKTOP\TDGAMEPRERELISE\TDGAME\TDGAME\SOLDIER.CPP|C:\USERS\EISKALT\DESKTOP\TDGAMEPRERELISE\TDGAME\TDGAME\TANK.CPP
C:\USERS\EISKALT\DESKTOP\TDGAMEPRERELISE\TDGAME\TDGAME\DEBUG\CORE.OBJ
C:\USERS\EISKALT\DESKTOP\TDGAMEPRERELISE\TDGAME\TDGAME\DEBUG\GAMEMENU.OBJ
C:\USERS\EISKALT\DESKTOP\TDGAMEPRERELISE\TDGAME\TDGAME\DEBUG\GUN.OBJ
C:\USERS\EISKALT\DESKTOP\TDGAMEPRERELISE\TDGAME\TDGAME\DEBUG\LASER.OBJ
C:\USERS\EISKALT\DESKTOP\TDGAMEPRERELISE\TDGAME\TDGAME\DEBUG\MAINMENU.OBJ
C:\USERS\EISKALT\DESKTOP\TDGAMEPRERELISE\TDGAME\TDGAME\DEBUG\SOLDIER.OBJ
C:\USERS\EISKALT\DESKTOP\TDGAMEPRERELISE\TDGAME\TDGAME\DEBUG\TANK.OBJ
C:\USERS\EISKALT\DESKTOP\TDGAMEPRERELISE\TDGAME\TDGAME\DEBUG\MAIN.OBJ
^C:\USERS\EISKALT\DESKTOP\TDGAMEPRERELISE\TDGAME\TDGAME\GAMEMENU.CPP|C:\USERS\EISKALT\DESKTOP\TDGAMEPRERELISE\TDGAME\TDGAME\MAIN.CPP
C:\USERS\EISKALT\DESKTOP\TDGAMEPRERELISE\TDGAME\TDGAME\DEBUG\GAMEMENU.OBJ
C:\USERS\EISKALT\DESKTOP\TDGAMEPRERELISE\TDGAME\TDGAME\DEBUG\MAIN.OBJ
^C:\USERS\EISKALT\DESKTOP\TDGAMEPRERELISE\TDGAME\TDGAME\MAIN.CPP|C:\USERS\EISKALT\DESKTOP\TDGAMEPRERELISE\TDGAME\TDGAME\MAINMENU.CPP
C:\USERS\EISKALT\DESKTOP\TDGAMEPRERELISE\TDGAME\TDGAME\DEBUG\MAINMENU.OBJ
C:\USERS\EISKALT\DESKTOP\TDGAMEPRERELISE\TDGAME\TDGAME\DEBUG\MAIN.OBJ
